<?xml version="1.0" encoding="UTF-8" standalone="no"?>
<svg
   xmlns:dc="http://purl.org/dc/elements/1.1/"
   xmlns:cc="http://creativecommons.org/ns#"
   xmlns:rdf="http://www.w3.org/1999/02/22-rdf-syntax-ns#"
   xmlns:svg="http://www.w3.org/2000/svg"
   xmlns="http://www.w3.org/2000/svg"
   xmlns:sodipodi="http://sodipodi.sourceforge.net/DTD/sodipodi-0.dtd"
   xmlns:inkscape="http://www.inkscape.org/namespaces/inkscape"
   inkscape:version="1.0alpha (c523de1, 2019-03-31)"
   sodipodi:docname="feMorphology-icon-symbolic.svg"
   viewBox="0 0 16 16"
   height="16"
   width="16"
   id="svg1"
   version="1.1">
  <defs
     id="defs500">
    <inkscape:path-effect
       update_on_knot_move="true"
       attempt_force_join="true"
       miter_limit="4"
       offset="0.01"
       linejoin_type="round"
       is_visible="true"
       id="path-effect502"
       effect="offset" />
  </defs>
  <sodipodi:namedview
     inkscape:current-layer="layercompo"
     inkscape:window-maximized="1"
     inkscape:window-height="745"
     inkscape:window-width="1366"
     inkscape:document-rotation="0"
     inkscape:window-y="-8"
     inkscape:window-x="-8"
     inkscape:cy="3.6041069"
     inkscape:cx="10.462998"
     inkscape:zoom="76.83758"
     showgrid="true"
     id="namedview"
     guidetolerance="10"
     gridtolerance="10"
     objecttolerance="10">
    <inkscape:grid
       id="grid"
       type="xygrid" />
  </sodipodi:namedview>
  <metadata
     id="metadata1906">
    <rdf:RDF>
      <cc:Work
         rdf:about="">
        <dc:format>image/svg+xml</dc:format>
        <dc:type
           rdf:resource="http://purl.org/dc/dcmitype/StillImage" />
        <cc:license
           rdf:resource="http://creativecommons.org/publicdomain/zero/1.0/" />
        <dc:title>fe Editor new Icons proposal</dc:title>
        <dc:date>13 Nov 2018</dc:date>
        <dc:creator>
          <cc:Agent>
            <dc:title>Ramón Miranda</dc:title>
          </cc:Agent>
        </dc:creator>
        <dc:rights>
          <cc:Agent>
            <dc:title>see the license tab</dc:title>
          </cc:Agent>
        </dc:rights>
        <dc:subject>
          <rdf:Bag>
            <rdf:li>icon ui</rdf:li>
          </rdf:Bag>
        </dc:subject>
        <dc:description>This is a little contribution with Inkscape Project
Ramon Miranda  www.ramonmiranda.com (design and SVG file)
Jabiertxo (SVG stuff to integrate them in UI)</dc:description>
        <dc:publisher>
          <cc:Agent>
            <dc:title />
          </cc:Agent>
        </dc:publisher>
        <dc:identifier />
        <dc:source />
        <dc:relation />
        <dc:language>-</dc:language>
        <dc:coverage />
        <dc:contributor>
          <cc:Agent>
            <dc:title>Ramon Miranda
Jabier Arraiza</dc:title>
          </cc:Agent>
        </dc:contributor>
      </cc:Work>
      <cc:License
         rdf:about="http://creativecommons.org/publicdomain/zero/1.0/">
        <cc:permits
           rdf:resource="http://creativecommons.org/ns#Reproduction" />
        <cc:permits
           rdf:resource="http://creativecommons.org/ns#Distribution" />
        <cc:permits
           rdf:resource="http://creativecommons.org/ns#DerivativeWorks" />
      </cc:License>
    </rdf:RDF>
  </metadata>
  <g
     inkscape:label="feMorphology"
     id="layercompo"
     inkscape:groupmode="layer">
    <path
       style="opacity:0;fill:none"
       d="M 0,0 H 16 V 16 H 0 Z"
       id="rect22048" />
    <path
       style="opacity:0.4;fill:#000000"
       d="M 8.9647106,14.419198 C 8.5509147,14.386652 8.1581134,14.155393 7.927026,13.808275 7.5655072,13.265232 7.633012,12.545155 8.0883999,12.086886 c 0.158639,-0.159642 0.3270898,-0.266494 0.534702,-0.339183 0.152618,-0.05344 0.2660139,-0.07 0.5592081,-0.08169 0.2837404,-0.01131 0.4469362,-0.02959 0.6657061,-0.07458 0.6012079,-0.12363 1.1664229,-0.395902 1.6450029,-0.792425 0.134577,-0.111507 0.372673,-0.349803 0.484767,-0.48519 0.375435,-0.4534361 0.645753,-1.003892 0.773617,-1.5753425 0.06916,-0.3090521 0.07963,-0.4160906 0.07962,-0.8136671 -8e-6,-0.4096726 -0.01375,-0.5403081 -0.09043,-0.8593616 C 12.393521,5.6211775 11.26205,4.5357082 9.8029055,4.2472033 9.5964281,4.2063776 9.5027524,4.1964226 9.1537695,4.1782273 8.8065048,4.1601215 8.7105489,4.1423378 8.5233014,4.0613913 8.3192474,3.9731782 8.1018737,3.8018063 7.9667958,3.622656 7.8969212,3.5299862 7.8069541,3.3575369 7.7681114,3.241825 7.5848086,2.6957792 7.7604402,2.0854286 8.201488,1.7357691 8.4319382,1.5530678 8.6601439,1.4608455 8.9547843,1.4313349 c 0.2232444,-0.022355 0.7902991,0.014379 1.1671927,0.075617 1.747538,0.2839408 3.305417,1.2607895 4.311543,2.7035036 0.947982,1.3593405 1.33865,3.024712 1.095758,4.6710969 -0.307199,2.0822886 -1.626569,3.9010936 -3.515281,4.8459656 -0.320292,0.160231 -0.573695,0.264067 -0.921046,0.377409 -0.558489,0.182236 -1.1336693,0.284127 -1.7558537,0.311042 -0.2503423,0.01083 -0.27332,0.01103 -0.3723867,0.0032 z M 9.4633334,13.888344 C 11.153927,13.77899 12.719691,12.964728 13.772679,11.647309 15.259927,9.7865713 15.496112,7.1999968 14.369942,5.1064 14.072592,4.5536136 13.736865,4.1077334 13.281484,3.6608043 12.617994,3.0096279 11.851556,2.5432506 10.958418,2.2472142 10.362032,2.0495463 9.6484689,1.9367232 9.0892286,1.9516753 c -0.1728467,0.00462 -0.195402,0.00776 -0.287925,0.04016 -0.141693,0.049607 -0.217517,0.097885 -0.3292913,0.2096525 -0.1121359,0.1121431 -0.1604754,0.1882463 -0.2091622,0.3292913 -0.04558,0.1320602 -0.055972,0.3091953 -0.026124,0.4453147 0.056164,0.2561342 0.2291258,0.4782044 0.4587205,0.5889586 0.1436797,0.069317 0.2004742,0.08013 0.4812399,0.091657 0.4917391,0.020192 0.8330965,0.078652 1.2462565,0.2134254 0.643061,0.2097778 1.200598,0.5535487 1.687626,1.0405734 0.364675,0.3646832 0.609728,0.710312 0.836025,1.1791808 0.204527,0.4237474 0.327323,0.8449424 0.391312,1.3422121 0.02898,0.2252346 0.02884,0.7580752 -3.58e-4,0.9854003 -0.114351,0.8931387 -0.46758,1.6784016 -1.052433,2.3396796 -0.560421,0.633653 -1.320662,1.095076 -2.146041,1.302542 -0.3186961,0.0801 -0.5869724,0.116364 -0.9796664,0.132418 -0.2029944,0.0083 -0.2604655,0.01452 -0.3265565,0.03538 -0.372068,0.117428 -0.6126236,0.437462 -0.6129279,0.815433 -3.579e-4,0.4098 0.2767816,0.751402 0.681675,0.840318 0.084884,0.01864 0.3191788,0.02076 0.5616423,0.005 z"
       id="path9207" />
    <path
       style="opacity:1;fill:#000000"
       d="m 7.1289062,0.38085938 c -0.081858,0 -0.1446458,0.0358828 -0.1855468,0.10546874 l -0.033203,0.0585938 v 0.25390624 c 0,0.13868026 0.00229,0.26351478 0.00781,0.28320308 0.013901,0.049558 0.06872,0.1081383 0.1230468,0.1328126 0.026094,0.011857 0.063333,0.021484 0.083984,0.021484 0.053008,0 0.1284396,-0.037378 0.1660156,-0.082031 0.052178,-0.062014 0.058694,-0.1123324 0.054687,-0.37890628 l -0.00586,-0.25 -0.035156,-0.0488281 C 7.2594508,0.41278735 7.2032503,0.38085937 7.1289062,0.38085938 Z M 6.9921875,1.4394531 c -0.040082,0.035191 -0.064184,0.05319 -0.074219,0.1171875 -0.00961,0.061274 -0.00781,0.1674523 -0.00781,0.3808594 0,0.2111247 0.00239,0.3986134 0.00781,0.4179688 0.012613,0.045067 0.077778,0.1189472 0.1230468,0.1386718 0.1215987,0.052985 0.2661498,-0.02601 0.2949219,-0.1582031 0.00876,-0.040373 0.012156,-0.1864405 0.00977,-0.421875 C 7.3423595,1.5864615 7.341569,1.5486705 7.3203125,1.5058594 7.2612572,1.3869257 7.0914654,1.352285 6.9921875,1.4394531 Z M 9.1113281,1.953125 c -0.21022,0.0048 -0.2288543,0.00625 -0.3183593,0.039063 C 8.6565622,2.042189 8.5757556,2.094412 8.4707031,2.1992188 8.3054834,2.3640583 8.2343605,2.530352 8.2246094,2.765625 c -0.00701,0.169237 0.013723,0.2722299 0.083984,0.4121094 0.087799,0.1747935 0.2235895,0.308431 0.3945312,0.390625 0.1332647,0.064076 0.1984405,0.076592 0.46875,0.087891 0.4446451,0.018589 0.7559067,0.066811 1.115234,0.171875 1.486222,0.4345613 2.621633,1.6363167 2.96875,3.1425781 0.489495,2.1241068 -0.709827,4.2768099 -2.777343,4.9863279 -0.422485,0.144989 -0.822153,0.217365 -1.2949222,0.232422 -0.2474523,0.0079 -0.3452054,0.02626 -0.4804688,0.0918 -0.3041172,0.14736 -0.4824219,0.429337 -0.4824219,0.765625 0,0.394609 0.2634085,0.730494 0.6464844,0.828125 0.081865,0.02095 0.1195142,0.02218 0.3671875,0.01758 0.1513454,-0.0028 0.3333325,-0.01054 0.40625,-0.01758 0.573554,-0.05534 1.128149,-0.187241 1.673828,-0.402344 0.209226,-0.08247 0.636896,-0.294931 0.830078,-0.410156 0.894491,-0.533496 1.62098,-1.268038 2.138672,-2.164062 0.363737,-0.629569 0.620706,-1.3691117 0.728516,-2.0957036 0.04582,-0.3087976 0.062,-0.523013 0.0625,-0.8730469 7.42e-4,-0.546089 -0.05115,-0.962228 -0.183594,-1.484375 C 14.398037,4.5032937 12.946312,2.9297144 11.037109,2.2714844 10.416834,2.0576366 9.7011351,1.9396499 9.1113281,1.953125 Z M 5.8945312,2.3769531 C 5.2755679,2.3620389 4.4396332,2.5322174 3.7949219,2.8046875 2.0267778,3.5519477 0.7745077,5.1308543 0.45898438,7.0117188 0.40272495,7.3470642 0.39123394,7.4993699 0.390625,7.9082031 0.38982569,8.465097 0.42985539,8.795146 0.55859375,9.3007812 0.82462673,10.345652 1.4209836,11.333144 2.21875,12.044922 c 0.9345717,0.833848 2.0896773,1.322052 3.3378906,1.416016 0.069515,0.0052 0.1978066,0.01082 0.2871094,0.01172 0.22755,0.0023 0.2947045,-0.01717 0.4023438,-0.125 0.095995,-0.09617 0.1269531,-0.171785 0.1269531,-0.300781 0,-0.11874 -0.03068,-0.198051 -0.1113281,-0.285156 C 6.17498,12.668034 6.0859472,12.626606 5.9511719,12.621094 5.303942,12.594778 4.9167486,12.529357 4.4199219,12.361328 2.9312514,11.857859 1.7787474,10.61246 1.390625,9.0859375 0.74991446,6.5659629 2.2740898,4.0067254 4.7929688,3.375 5.1393576,3.2881261 5.4320578,3.2481156 5.8261719,3.2324219 c 0.2066479,-0.00823 0.2318251,-0.011067 0.2929687,-0.039063 0.087349,-0.039987 0.172348,-0.1212101 0.2148438,-0.2050782 0.03105,-0.061315 0.033203,-0.081126 0.033203,-0.1855468 0,-0.1004856 -0.00205,-0.1254655 -0.029297,-0.1835938 C 6.2979728,2.53398 6.2213916,2.4575577 6.1328125,2.4140625 6.0675305,2.38201 6.0494839,2.3806881 5.8945312,2.3769531 Z M 7.2773438,2.7304688 C 7.1758652,2.6289902 7.0245321,2.6451665 6.9433594,2.765625 c -0.037444,0.055578 -0.04148,0.1357676 -0.037109,0.5195312 0.00375,0.3292685 0.00386,0.3354707 0.033203,0.3867188 0.016507,0.028828 0.049062,0.063827 0.076172,0.080078 0.097327,0.058347 0.2290692,0.028149 0.2929688,-0.068359 l 0.033203,-0.054688 0.00391,-0.375 C 7.3495758,2.8315039 7.3456125,2.7987375 7.2773438,2.7304688 Z M 7.0078125,3.9765625 c -0.096008,0.067831 -0.097469,0.083907 -0.1015625,0.484375 -0.00425,0.4151027 -7.232e-4,0.4641206 0.068359,0.5332031 0.030516,0.030517 0.064237,0.048941 0.099609,0.056641 0.116695,0.025408 0.2308605,-0.041235 0.2617187,-0.1523437 0.016075,-0.05788 0.016075,-0.7409484 0,-0.7988281 C 7.2968416,3.95883 7.1249128,3.8938355 7.0078125,3.9765625 Z m 0.3007813,1.3378906 c -0.08954,-0.1352267 -0.285027,-0.1299826 -0.3671876,0.00977 l -0.03125,0.056641 -0.00391,0.3535156 c -0.00243,0.2369054 4.535e-4,0.3731166 0.00977,0.4179688 0.016618,0.080058 0.065546,0.1408518 0.1367188,0.1660156 0.063644,0.022508 0.1002982,0.022396 0.1582031,-0.00391 0.060336,-0.027407 0.1081787,-0.085979 0.125,-0.1484375 0.00848,-0.031465 0.011986,-0.1786754 0.00977,-0.421875 L 7.3398438,5.3613281 Z M 6.9921875,6.5390625 c -0.040151,0.035251 -0.064232,0.053881 -0.074219,0.1191406 -0.00958,0.062575 -0.00781,0.1708449 -0.00781,0.390625 0,0.3463627 0.00117,0.4003104 0.019531,0.4335938 0.023668,0.042904 0.062966,0.081923 0.1113281,0.1074219 0.045486,0.023959 0.1149328,0.023298 0.1660156,0.00195 C 7.2599576,7.5696832 7.320125,7.498178 7.3359375,7.4394531 7.3444626,7.407847 7.3478534,7.260866 7.3457031,7.0214844 7.3426845,6.684991 7.3415547,6.6482522 7.3203125,6.6054688 7.2612572,6.4865341 7.0914653,6.4518945 6.9921875,6.5390625 Z m 0.099609,1.2265625 c -0.054227,0.010172 -0.1153555,0.050519 -0.1484375,0.099609 -0.037388,0.055498 -0.04148,0.1338073 -0.037109,0.5175781 l 0.00586,0.3378906 0.03125,0.052734 c 0.022062,0.037528 0.048539,0.064488 0.083984,0.082031 0.1263491,0.062546 0.2609222,0.00588 0.3066406,-0.1289063 0.018546,-0.054681 0.018147,-0.7373582 0,-0.8027344 C 7.3068759,7.8261809 7.1879291,7.7475894 7.0917969,7.765625 Z m -0.089844,1.3144531 c -0.088739,0.064282 -0.091619,0.081787 -0.095703,0.4804688 -0.00232,0.2270483 -7.81e-4,0.3739435 0.00781,0.4140625 0.015383,0.071736 0.057499,0.1297896 0.1132813,0.1582026 0.06261,0.0319 0.1728152,0.021 0.2285156,-0.02148 0.040595,-0.03097 0.064642,-0.0494 0.076172,-0.1132811 0.011024,-0.061076 0.011752,-0.1660564 0.013672,-0.375 0.00388,-0.4216682 2.878e-4,-0.4528414 -0.068359,-0.5214844 -0.078891,-0.07889 -0.1855404,-0.086572 -0.2753907,-0.021484 z M 7.125,10.316406 c -0.080975,2.63e-4 -0.1466376,0.03793 -0.1855469,0.107422 -0.029753,0.05314 -0.02961,0.05704 -0.033203,0.408203 -0.00234,0.22871 0.00108,0.374114 0.00977,0.416016 0.016242,0.07826 0.068529,0.145975 0.1367188,0.169922 0.058036,0.02035 0.074157,0.02019 0.1328125,0.0039 0.06388,-0.01774 0.1328505,-0.0872 0.1503906,-0.152344 0.00938,-0.03484 0.012136,-0.1702 0.00977,-0.427734 l -0.00586,-0.382813 -0.035156,-0.04883 C 7.2586718,10.345269 7.2014976,10.316034 7.125,10.316406 Z m -0.1328125,1.320313 c -0.040082,0.03519 -0.064184,0.05319 -0.074219,0.117187 -0.00961,0.06128 -0.00781,0.167455 -0.00781,0.38086 0,0.211128 0.00248,0.398935 0.00781,0.417968 0.0139,0.04956 0.068719,0.108131 0.1230468,0.132813 0.091089,0.04138 0.177381,0.02134 0.2441406,-0.05469 0.020819,-0.02371 0.043615,-0.06515 0.050781,-0.0918 0.00853,-0.03161 0.011916,-0.178591 0.00977,-0.417968 -0.00302,-0.336495 -0.00406,-0.375017 -0.025391,-0.417969 -0.059055,-0.118933 -0.2288466,-0.15357 -0.328125,-0.06641 z m 0.2851563,1.291015 c -0.101535,-0.101544 -0.2528475,-0.08329 -0.3339844,0.03711 -0.037503,0.05564 -0.04155,0.134534 -0.037109,0.517578 0.00329,0.28335 0.00549,0.336729 0.023437,0.36914 0.024803,0.0448 0.077951,0.09964 0.1171875,0.115235 0.060422,0.02403 0.1378703,0.01299 0.1953125,-0.02344 0.098434,-0.06242 0.09971,-0.07386 0.1035156,-0.498047 0.00372,-0.415351 -2.629e-4,-0.449485 -0.068359,-0.517578 z m 0,1.273438 c -0.094223,-0.09423 -0.2391388,-0.08629 -0.3183594,0.01758 -0.050551,0.06626 -0.056646,0.131519 -0.052734,0.513672 0.00361,0.352184 0.00346,0.357039 0.033203,0.410156 0.01801,0.03216 0.049156,0.06326 0.078125,0.08008 0.068568,0.0398 0.1763539,0.03552 0.2382813,-0.01172 0.040595,-0.03097 0.064642,-0.0494 0.076172,-0.113282 0.011024,-0.06108 0.011752,-0.166056 0.013672,-0.375 0.00388,-0.421666 2.875e-4,-0.452839 -0.068359,-0.521484 z"
       id="path9199" />
  </g>
</svg>
